%YAML 1.1
%TAG !u! tag:unity3d.com,2011:
--- !u!114 &11400000
MonoBehaviour:
  m_ObjectHideFlags: 0
  m_CorrespondingSourceObject: {fileID: 0}
  m_PrefabInstance: {fileID: 0}
  m_PrefabAsset: {fileID: 0}
  m_GameObject: {fileID: 0}
  m_Enabled: 1
  m_EditorHideFlags: 0
  m_Script: {fileID: 11500000, guid: 63765c59d4fc58c4cb88ec0ca53ed897, type: 3}
  m_Name: Mina
  m_EditorClassIdentifier: 
  sprite: {fileID: 21300000, guid: b80f02a111e68fa4ca42c7d2aa9c1008, type: 3}
  name: Mina
  t: 1
  quantity: 1
  gameObject: {fileID: 0}
