%YAML 1.1
%TAG !u! tag:unity3d.com,2011:
--- !u!114 &11400000
MonoBehaviour:
  m_ObjectHideFlags: 0
  m_CorrespondingSourceObject: {fileID: 0}
  m_PrefabInstance: {fileID: 0}
  m_PrefabAsset: {fileID: 0}
  m_GameObject: {fileID: 0}
  m_Enabled: 1
  m_EditorHideFlags: 0
  m_Script: {fileID: 11500000, guid: accf83f3a9063b34c888e6f9ae307c06, type: 3}
  m_Name: Inventory
  m_EditorClassIdentifier: 
  renewInventoryGUI: {fileID: 11400000, guid: 6a3389789865eb64281b5a3caf301a82, type: 2}
  equipmentEvent: {fileID: 11400000, guid: 49701fdf41a44dd458d215f8d80c9714, type: 2}
  characterMoney: {fileID: 11400000, guid: 3ea4b38ae1b2bde429a08a602a9c6865, type: 2}
  escudoCharacter: {fileID: 11400000, guid: fab58ea9b6e3cd84bbac6105b7865ded, type: 2}
  maxCapacityItems: 18
  maxCapacityEquipment: 4
  InventoryItems:
  - {fileID: 11400000, guid: 3cbcf47caf14c0849a8c742c58e01392, type: 2}
  - {fileID: 11400000, guid: 9c204919b3fb8e74d9e4dddded176ac4, type: 2}
  InventoryEquipment: []
